{
    "slides": [
        {
            "src": "./tous.png",
            "alt": "tous",
            "link": "/products"
        },
        {
            "src": "./roman.png",
            "alt": "romans",
            "link": "/romans"
        },
        {
            "src": "./livres.png",
            "alt": "livres",
            "link": "/books"
        },
        {
            "src": "./manga.png",
            "alt": "mangas",
            "link": "/mangas"
        },
        {
            "src": "./film.png",
            "alt": "films",
            "link": "/movies"
        },
        {
            "src": "./album.png",
            "alt": "albums",
            "link": "/albums"
        }
    ]
}